{
    "KPlugin": {
        "Authors": [
            {
                "Email": "aacid@kde.org",
                "Name": "Albert Astals Cid",
                "Name[ar]": "Albert Astals Cid",
                "Name[az]": "Albert Astals Cid",
                "Name[be]": "Albert Astals Cid",
                "Name[bg]": "Albert Astals Cid",
                "Name[ca@valencia]": "Albert Astals Cid",
                "Name[ca]": "Albert Astals Cid",
                "Name[cs]": "Albert Astals Cid",
                "Name[da]": "Albert Astals Cid",
                "Name[de]": "Albert Astals Cid",
                "Name[el]": "Albert Astals Cid",
                "Name[en_GB]": "Albert Astals Cid",
                "Name[eo]": "Albert Astals Cid",
                "Name[es]": "Albert Astals Cid",
                "Name[et]": "Albert Astals Cid",
                "Name[eu]": "Albert Astals Cid",
                "Name[fi]": "Albert Astals Cid",
                "Name[fr]": "Albert Astals Cid",
                "Name[gl]": "Albert Astals Cid",
                "Name[he]": "אלברט אסטלס סיד",
                "Name[hu]": "Albert Astals Cid",
                "Name[ia]": "Albert  Astals Cid",
                "Name[ie]": "Albert Astals Cid",
                "Name[it]": "Albert Astals Cid",
                "Name[ka]": "Albert Astals Cid",
                "Name[ko]": "Albert Astals Cid",
                "Name[lt]": "Albert Astals Cid",
                "Name[lv]": "Albert Astals Cid",
                "Name[nl]": "Albert Astals Cid",
                "Name[nn]": "Albert Astals Cid",
                "Name[pa]": "ਅਲਬਰਟ ਅਸਟਾਲਸ ਸਿਡ",
                "Name[pl]": "Albert Astals Cid",
                "Name[pt]": "Albert Astals Cid",
                "Name[pt_BR]": "Albert Astals Cid",
                "Name[ro]": "Albert Astals Cid",
                "Name[ru]": "Albert Astals Cid",
                "Name[sk]": "Albert Astals Cid",
                "Name[sl]": "Albert Astals Cid",
                "Name[sr@ijekavian]": "Алберт Асталс Сид",
                "Name[sr@ijekavianlatin]": "Albert Astals Sid",
                "Name[sr@latin]": "Albert Astals Sid",
                "Name[sr]": "Алберт Асталс Сид",
                "Name[sv]": "Albert Astals Cid",
                "Name[ta]": "ஆல்பர்டு அஸ்டால்சு சிடு",
                "Name[tr]": "Albert Astals Cid",
                "Name[uk]": "Albert Astals Cid",
                "Name[vi]": "Albert Astals Cid",
                "Name[x-test]": "xxAlbert Astals Cidxx",
                "Name[zh_CN]": "Albert Astals Cid",
                "Name[zh_TW]": "Albert Astals Cid"
            },
            {
                "Email": "pino@kde.org",
                "Name": "Pino Toscano",
                "Name[ar]": "Pino Toscano",
                "Name[az]": "Pino Toscano",
                "Name[be]": "Pino Toscano",
                "Name[bg]": "Pino Toscano",
                "Name[ca@valencia]": "Pino Toscano",
                "Name[ca]": "Pino Toscano",
                "Name[cs]": "Pino Toscano",
                "Name[da]": "Pino Toscano",
                "Name[de]": "Pino Toscano",
                "Name[el]": "Pino Toscano",
                "Name[en_GB]": "Pino Toscano",
                "Name[eo]": "Pino Toscano",
                "Name[es]": "Pino Toscano",
                "Name[et]": "Pino Toscano",
                "Name[eu]": "Pino Toscano",
                "Name[fi]": "Pino Toscano",
                "Name[fr]": "Pino Toscano",
                "Name[gl]": "Pino Toscano",
                "Name[he]": "פינו טוסקנו",
                "Name[hu]": "Pino Toscano",
                "Name[ia]": "Pino Toscano",
                "Name[ie]": "Pino Toscano",
                "Name[it]": "Pino Toscano",
                "Name[ka]": "Pino Toscano",
                "Name[ko]": "Pino Toscano",
                "Name[lt]": "Pino Toscano",
                "Name[lv]": "Pino Toscano",
                "Name[nl]": "Pino Toscano",
                "Name[nn]": "Pino Toscano",
                "Name[pa]": "ਪਿਨੋ ਟਿਸਕਾਨੋ",
                "Name[pl]": "Pino Toscano",
                "Name[pt]": "Pino Toscano",
                "Name[pt_BR]": "Pino Toscano",
                "Name[ro]": "Pino Toscano",
                "Name[ru]": "Pino Toscano",
                "Name[sk]": "Pino Toscano",
                "Name[sl]": "Pino Toscano",
                "Name[sr@ijekavian]": "Пино Тоскано",
                "Name[sr@ijekavianlatin]": "Pino Toskano",
                "Name[sr@latin]": "Pino Toskano",
                "Name[sr]": "Пино Тоскано",
                "Name[sv]": "Pino Toscano",
                "Name[ta]": "பீனோ டொஸ்கானோ",
                "Name[tr]": "Pino Toscano",
                "Name[uk]": "Pino Toscano",
                "Name[vi]": "Pino Toscano",
                "Name[x-test]": "xxPino Toscanoxx",
                "Name[zh_CN]": "Pino Toscano",
                "Name[zh_TW]": "Pino Toscano"
            },
            {
                "Email": "tokoe@kde.org",
                "Name": "Tobias Koenig",
                "Name[ar]": "Tobias Koenig",
                "Name[az]": "Tobias Koenig",
                "Name[be]": "Tobias Koenig",
                "Name[bg]": "Tobias Koenig",
                "Name[ca@valencia]": "Tobias Koenig",
                "Name[ca]": "Tobias Koenig",
                "Name[cs]": "Tobias Koenig",
                "Name[da]": "Tobias Koenig",
                "Name[de]": "Tobias Koenig",
                "Name[el]": "Tobias Koenig",
                "Name[en_GB]": "Tobias Koenig",
                "Name[eo]": "Tobias Koenig",
                "Name[es]": "Tobias Koenig",
                "Name[et]": "Tobias Koenig",
                "Name[eu]": "Tobias Koenig",
                "Name[fi]": "Tobias Koenig",
                "Name[fr]": "Tobias Koenig",
                "Name[gl]": "Tobias Koenig",
                "Name[he]": "טוביאס קוניג",
                "Name[hu]": "Tobias Koenig",
                "Name[ia]": "Tobias Koenig",
                "Name[ie]": "Tobias Koenig",
                "Name[it]": "Tobias Koenig",
                "Name[ka]": "Tobias Koenig",
                "Name[ko]": "Tobias Koenig",
                "Name[lt]": "Tobias Koenig",
                "Name[lv]": "Tobias Koenig",
                "Name[nl]": "Tobias Koenig",
                "Name[nn]": "Tobias König",
                "Name[pa]": "Tobias Koenig",
                "Name[pl]": "Tobias Koenig",
                "Name[pt]": "Tobias Koenig",
                "Name[pt_BR]": "Tobias Koenig",
                "Name[ro]": "Tobias Koenig",
                "Name[ru]": "Tobias König",
                "Name[sk]": "Tobias Koenig",
                "Name[sl]": "Tobias Koenig",
                "Name[sr@ijekavian]": "Тобијас Кениг",
                "Name[sr@ijekavianlatin]": "Tobijas Kenig",
                "Name[sr@latin]": "Tobijas Kenig",
                "Name[sr]": "Тобијас Кениг",
                "Name[sv]": "Tobias Koenig",
                "Name[ta]": "டொபையாசு கோனிகு",
                "Name[tr]": "Tobias Koenig",
                "Name[uk]": "Tobias Koenig",
                "Name[vi]": "Tobias Koenig",
                "Name[x-test]": "xxTobias Koenigxx",
                "Name[zh_CN]": "Tobias Koenig",
                "Name[zh_TW]": "Tobias Koenig"
            }
        ],
        "Copyright": "© 2005, 2009 Albert Astals Cid\n© 2006-2007 Pino Toscano\n© 2006-2007 Tobias Koenig",
        "Copyright[ar]": "© 2005, 2009 Albert Astals Cid\n© 2006-2007 Pino Toscano\n© 2006-2007 Tobias Koenig",
        "Copyright[az]": "© 2005, 2009 Albert Astals Cid\n© 2006-2007 Pino Toscano\n© 2006-2007 Tobias Koenig",
        "Copyright[be]": "© 2005, 2009 Albert Astals Cid\n© 2006-2007 Pino Toscano\n© 2006-2007 Tobias Koenig",
        "Copyright[bg]": "© 2005, 2009 Albert Astals Cid\n© 2006-2007 Pino Toscano\n© 2006-2007 Tobias Koenig",
        "Copyright[ca@valencia]": "© 2005, 2009 Albert Astals Cid\n© 2006-2007 Pino Toscano\n© 2006-2007 Tobias Koenig",
        "Copyright[ca]": "© 2005, 2009 Albert Astals Cid\n© 2006-2007 Pino Toscano\n© 2006-2007 Tobias Koenig",
        "Copyright[cs]": "© 2005, 2009 Albert Astals Cid\n© 2006-2007 Pino Toscano\n© 2006-2007 Tobias Koenig",
        "Copyright[da]": "© 2005, 2009 Albert Astals Cid\n© 2006-2007 Pino Toscano\n© 2006-2007 Tobias Koenig",
        "Copyright[de]": "© 2005, 2009 Albert Astals Cid\n© 2006-2007 Pino Toscano\n© 2006-2007 Tobias Koenig",
        "Copyright[el]": "© 2005, 2009 Albert Astals Cid\n© 2006-2007 Pino Toscano\n© 2006-2007 Tobias Koenig",
        "Copyright[en_GB]": "© 2005, 2009 Albert Astals Cid\n© 2006-2007 Pino Toscano\n© 2006-2007 Tobias Koenig",
        "Copyright[eo]": "© 2005, 2009 Albert Astals Cid\n© 2006-2007 Pino Toscano\n© 2006-2007 Tobias Koenig",
        "Copyright[es]": "© 2005, 2009 Albert Astals Cid\n© 2006-2007 Pino Toscano\n© 2006-2007 Tobias Koenig",
        "Copyright[et]": "© 2005, 2009: Albert Astals Cid\n© 2006-2007: Pino Toscano\n© 2006-2007: Tobias Koenig",
        "Copyright[eu]": "© 2005, 2009 Albert Astals Cid\n© 2006-2007 Pino Toscano\n© 2006-2007 Tobias Koenig",
        "Copyright[fi]": "© 2005, 2009 Albert Astals Cid\n© 2006–2007 Pino Toscano\n© 2006–2007 Tobias Koenig",
        "Copyright[fr]": "© 2005, 2009 Albert Astals Cid\n© 2006-2007 Pino Toscano\n© 2006-2007 Tobias Koenig",
        "Copyright[gl]": "© 2005, 2009 Albert Astals Cid\n© 2006-2007 Pino Toscano\n© 2006-2007 Tobias Koenig",
        "Copyright[he]": "© 2005, 2009 אלברט אסטלס סיד\n© 2006‏-2007 פינו טוסקנו\n© 2006‏-2007 טוביאס קוניג",
        "Copyright[hu]": "© Albert Astals Cid, 2005., 2009.\n© Pino Toscano,  2006-2007.\n© Tobias Koenig, 2006-2007.",
        "Copyright[ia]": "© 2005, 2009 Albert Astals Cid\n© 2006-2007 Pino Toscano\n© 2006-2007 Tobias Koenig",
        "Copyright[ie]": "© 2005, 2009 Albert Astals Cid\n© 2006-2007 Pino Toscano\n© 2006-2007 Tobias Koenig",
        "Copyright[it]": "© 2005, 2009 Albert Astals Cid\n© 2006-2007 Pino Toscano\n© 2006-2007 Tobias Koenig",
        "Copyright[ka]": "© 2005, 2009 Albert Astals Cid\n© 2006-2007 Pino Toscano\n© 2006-2007 Tobias Koenig",
        "Copyright[ko]": "© 2005, 2009 Albert Astals Cid\n© 2006-2007 Pino Toscano\n© 2006-2007 Tobias Koenig",
        "Copyright[lt]": "© 2005, 2009 Albert Astals Cid\n© 2006-2007 Pino Toscano\n© 2006-2007 Tobias Koenig",
        "Copyright[lv]": "© 2005, 2009 Albert Astals Cid\n© 2006-2007 Pino Toscano\n© 2006-2007 Tobias Koenig",
        "Copyright[nl]": "© 2005, 2009 Albert Astals Cid\n© 2006-2007 Pino Toscano\n© 2006-2007 Tobias Koenig",
        "Copyright[nn]": "© 2005, 2009 Albert Astals Cid\n© 2006–2007 Pino Toscano\n© 2006–2007 Tobias Koenig",
        "Copyright[pa]": "© 2005, 2009 Albert Astals Cid\n© 2006-2007 Pino Toscano\n© 2006-2007 Tobias Koenig",
        "Copyright[pl]": "© 2005, 2009 Albert Astals Cid\n© 2006-2007 Pino Toscano\n© 2006-2007 Tobias Koenig",
        "Copyright[pt]": "© 2005, 2009 Albert Astals Cid\n© 2006-2007 Pino Toscano\n© 2006-2007 Tobias Koenig",
        "Copyright[pt_BR]": "© 2005, 2009 Albert Astals Cid\n© 2006-2007 Pino Toscano\n© 2006-2007 Tobias Koenig",
        "Copyright[ro]": "© 2005, 2009 Albert Astals Cid\n© 2006-2007 Pino Toscano\n© 2006-2007 Tobias Koenig",
        "Copyright[ru]": "© Albert Astals Cid, 2005, 2009\n© Pino Toscano, 2006-2007\n© Tobias König, 2006-2007",
        "Copyright[sk]": "© 2005, 2009 Albert Astals Cid\n© 2006-2007 Pino Toscano\n© 2006-2007 Tobias Koenig",
        "Copyright[sl]": "© 2005, 2009 Albert Astals Cid\n© 2006-2007 Pino Toscano\n© 2006-2007 Tobias Koenig",
        "Copyright[sr@ijekavian]": "© 2005, 2009, Алберт Асталс Сид\n© 2006–2007, Пино Тоскано\n© 2006–2007, Тобијас Кениг",
        "Copyright[sr@ijekavianlatin]": "© 2005, 2009, Albert Astals Sid\n© 2006–2007, Pino Toskano\n© 2006–2007, Tobijas Kenig",
        "Copyright[sr@latin]": "© 2005, 2009, Albert Astals Sid\n© 2006–2007, Pino Toskano\n© 2006–2007, Tobijas Kenig",
        "Copyright[sr]": "© 2005, 2009, Алберт Асталс Сид\n© 2006–2007, Пино Тоскано\n© 2006–2007, Тобијас Кениг",
        "Copyright[sv]": "© 2005,2009 Albert Astals Cid\n© 2006-2007 Pino Toscano\n© 2006-2007 Tobias Koenig",
        "Copyright[tr]": "© 2005, 2009 Albert Astals Cid\n© 2006-2007 Pino Toscano\n© 2006-2007 Tobias Koenig",
        "Copyright[uk]": "© Albert Astals Cid, 2005, 2009 \n© Pino Toscano, 2006–2007\n© Tobias Koenig, 2006–2007",
        "Copyright[vi]": "© 2005, 2009 Albert Astals Cid\n© 2006-2007 Pino Toscano\n© 2006-2007 Tobias Koenig",
        "Copyright[x-test]": "xx© 2005, 2009 Albert Astals Cid\n© 2006-2007 Pino Toscano\n© 2006-2007 Tobias Koenigxx",
        "Copyright[zh_CN]": "© 2005, 2009 Albert Astals Cid\n© 2006-2007 Pino Toscano\n© 2006-2007 Tobias Koenig",
        "Copyright[zh_TW]": "© 2005, 2009 Albert Astals Cid\n© 2006-2007 Pino Toscano\n© 2006-2007 Tobias Koenig",
        "Description": "A simple image backend",
        "Description[ar]": "خلفية صور بسيطة",
        "Description[az]": "Sadə şəkil modulu",
        "Description[be]": "Просты рухавік для апрацоўвання выяў",
        "Description[bg]": "Бекенд на прости изображения",
        "Description[ca@valencia]": "Un dorsal d'imatges senzill",
        "Description[ca]": "Un dorsal d'imatges senzill",
        "Description[cs]": "Jednoduchá podpůrná vrstva obrázků",
        "Description[da]": "En simpel billed-backend",
        "Description[de]": "Ein einfaches Anzeigemodul für Bilder",
        "Description[el]": "Ένα απλό σύστημα υποστήριξης εικόνων",
        "Description[en_GB]": "A simple image backend",
        "Description[eo]": "Simpla bildo backend",
        "Description[es]": "Un sencillo motor para imágenes",
        "Description[et]": "Lihtne pildi taustaprogramm",
        "Description[eu]": "Irudien bizkarraldeko xume bat",
        "Description[fi]": "Yksinkertainen kuvataustaosa",
        "Description[fr]": "Un moteur simple pour image",
        "Description[gl]": "Motor simple de imaxes.",
        "Description[he]": "מנגנון תמונות פשוט",
        "Description[hu]": "Egyszerű képmodul",
        "Description[ia]": "Un simplice retroadministration de image",
        "Description[ie]": "Simplic infrastructura de images",
        "Description[it]": "Un semplice backend per le immagini",
        "Description[ka]": "უბრალო გამოსახულებების უკანაბოლო",
        "Description[ko]": "간단한 그림 백엔드",
        "Description[lt]": "Paprasta paveikslų programinė sąsaja",
        "Description[lv]": "Vienkārša attēlu aizmugursistēma",
        "Description[nl]": "Een eenvoudige afbeeldingsbackend",
        "Description[nn]": "Ein enkel biletmotor",
        "Description[pl]": "Wyświetlanie obrazów",
        "Description[pt]": "Uma infra-estrutura de imagens simples",
        "Description[pt_BR]": "Uma infraestrutura simples de imagens",
        "Description[ro]": "Platformă simplă pentru imagini",
        "Description[ru]": "Модуль поддержки форматов изображений",
        "Description[sk]": "Backend jednoduchých obrázkov",
        "Description[sl]": "Preprosto zaledje za slike",
        "Description[sr@ijekavian]": "Једноставна позадина за слике",
        "Description[sr@ijekavianlatin]": "Jednostavna pozadina za slike",
        "Description[sr@latin]": "Jednostavna pozadina za slike",
        "Description[sr]": "Једноставна позадина за слике",
        "Description[sv]": "Ett enkelt bildgränssnitt",
        "Description[tr]": "Basit bir görüntü arka ucu",
        "Description[uk]": "Проста програма для зображень",
        "Description[vi]": "Một hậu phương ảnh đơn giản",
        "Description[x-test]": "xxA simple image backendxx",
        "Description[zh_CN]": "简易图像后端程序",
        "Description[zh_TW]": "簡易的圖片後端介面",
        "License": "GPL",
        "MimeTypes": [
            "image/bmp",
            "image/x-dds",
            "image/x-eps",
            "image/x-exr",
            "image/gif",
            "image/x-hdr",
            "image/x-ico",
            "image/jp2",
            "image/jpeg",
            "video/x-mng",
            "image/x-portable-bitmap",
            "image/x-pcx",
            "image/x-portable-graymap",
            "image/png",
            "image/x-portable-pixmap",
            "image/x-psd",
            "image/x-rgb",
            "image/x-tga",
            "image/tiff",
            "image/x-xbitmap",
            "image/x-xcf",
            "image/x-xpixmap",
            "image/x-gzeps",
            "image/x-bzeps",
            "image/avif",
            "image/heif",
            "image/webp",
            "image/jxl"
        ],
        "Name": "Image Backend",
        "Name[ar]": "خلفية الصور",
        "Name[az]": "Image Backend",
        "Name[be]": "Рухавік апрацоўвання выяў",
        "Name[bg]": "Бекенд на Image",
        "Name[ca@valencia]": "Dorsal d'imatges",
        "Name[ca]": "Dorsal d'imatges",
        "Name[cs]": "Podpůrná vrstva obrázků",
        "Name[da]": "Billed-backend",
        "Name[de]": "Anzeigemodul für Bilder",
        "Name[el]": "Σύστημα υποστήριξης εικόνας",
        "Name[en_GB]": "Image Backend",
        "Name[eo]": "Bilda Backend",
        "Name[es]": "Motor para imágenes",
        "Name[et]": "Pildi taustaprogramm",
        "Name[eu]": "Irudien bizkarraldekoa",
        "Name[fi]": "Kuvataustaosa",
        "Name[fr]": "Moteur image",
        "Name[gl]": "Motor de imaxes",
        "Name[he]": "מנגנון תמונות",
        "Name[hu]": "Kép modul",
        "Name[ia]": "Retro-Administration de Image",
        "Name[ie]": "Infrastructura de images",
        "Name[it]": "Backend immagini",
        "Name[ka]": "გამოსახულებების უკანაბოლო",
        "Name[ko]": "그림 백엔드",
        "Name[lt]": "Paveikslų programinė sąsaja",
        "Name[lv]": "Attēlu aizmugursistēma",
        "Name[nl]": "Afbeeldings-backend",
        "Name[nn]": "Biletmotor",
        "Name[pa]": "ਚਿੱਤਰ ਬੈਕਐਂਡ",
        "Name[pl]": "Obsługa obrazów",
        "Name[pt]": "Infra-Estrutura de Imagens",
        "Name[pt_BR]": "Infraestrutura de imagens",
        "Name[ro]": "Platformă imagini",
        "Name[ru]": "Модуль поддержки форматов изображений",
        "Name[sk]": "Backend obrázkov",
        "Name[sl]": "Zaledje za slike",
        "Name[sr@ijekavian]": "Позадина за слике",
        "Name[sr@ijekavianlatin]": "Pozadina za slike",
        "Name[sr@latin]": "Pozadina za slike",
        "Name[sr]": "Позадина за слике",
        "Name[sv]": "Bildgränssnitt",
        "Name[ta]": "பட பின்நிலை",
        "Name[tr]": "Resim Arka Ucu",
        "Name[uk]": "Модуль зображень",
        "Name[vi]": "Hậu phương ảnh",
        "Name[x-test]": "xxImage Backendxx",
        "Name[zh_CN]": "图像后端程序",
        "Name[zh_TW]": "圖片後端介面",
        "Version": "0.1.2"
    },
    "X-KDE-Priority": 1,
    "X-KDE-okularAPIVersion": 1,
    "X-KDE-okularHasInternalSettings": false
}
